Una estimacion de los salarios de la NBA
…
8. Preddiccion

En el ultimo apartado observaremos como de fiable es nuestro modelo a la hora de la prediccion.

Lo primero calcularemos la desviacion tipica de los residuos de nuestro modelo ya que es un buen indicador a la hora de predecir y observamos que es relativamente baja

sd(resid(m1_b))

## [1] 0.4320049

Acontinuacion construiremos una tabla con tres columnas, el valor real del salario, el valor que predice nuestro modelo y la diferencia de ambos en valor absoluto

## # A tibble: 481 x 3
##    LogSal predLogSalary difSalary
##     <dbl>         <dbl>     <dbl>
##  1   5.91          5.90    0.0102
##  2   6.54          6.82    0.277 
##  3   7.09          7.20    0.112 
##  4   6.51          6.35    0.158 
##  5   6.49          6.45    0.0402
##  6   6.12          6.42    0.306 
##  7   4.87          5.94    1.07  
##  8   4.66          5.51    0.847 
##  9   7.08          7.10    0.0217
## 10   6.16          6.18    0.0195
## #  with 471 more rows
…
